\relax 
\citation{haskell2010}
\citation{Hudak07ahistory}
\citation{wirth76}
\@writefile{toc}{\contentsline {title}{编译原理大作业·实验报告}{1}}
\@writefile{toc}{\authcount {1}}
\@writefile{toc}{\contentsline {author}{林泽天, 王瑞俊}{1}}
\@writefile{toc}{\contentsline {section}{\numberline {1}前言}{1}}
\@writefile{toc}{\contentsline {section}{\numberline {2}简介}{1}}
\@writefile{toc}{\contentsline {subsection}{\numberline {2.1}Haskell}{1}}
\@writefile{toc}{\contentsline {subsection}{\numberline {2.2}Haskell/0}{2}}
\@writefile{toc}{\contentsline {subsection}{\numberline {2.3}Spineless Tagless G-Machine}{2}}
\@writefile{toc}{\contentsline {section}{\numberline {3}Haskell基础}{2}}
\@writefile{toc}{\contentsline {subsection}{\numberline {3.1}表达式}{3}}
\@writefile{toc}{\contentsline {subsection}{\numberline {3.2}类型与类型签名（Type signature）\FN@sf@gobble@opt  {有时也称类型标注（Type annotation）}}{3}}
\@writefile{toc}{\contentsline {subsection}{\numberline {3.3}IO}{3}}
\@writefile{toc}{\contentsline {subsection}{\numberline {3.4}类型别名（Type alias）*}{3}}
\@writefile{toc}{\contentsline {subsection}{\numberline {3.5}Kind\FN@sf@gobble@opt  {目前，Kind并没有统一的译名。}}{4}}
\@writefile{toc}{\contentsline {subsubsection}{Higher-Kinded Type*}{4}}
\@writefile{toc}{\contentsline {subsection}{\numberline {3.6}柯里化（Currying）和部分应用（partial application）}{4}}
\@writefile{toc}{\contentsline {subsection}{\numberline {3.7}类型类（Typeclass）*}{5}}
\@writefile{toc}{\contentsline {section}{\numberline {4}Haskell/0}{5}}
\@writefile{toc}{\contentsline {subsection}{\numberline {4.1}一些BNF语法的描述}{5}}
\@writefile{toc}{\contentsline {subsection}{\numberline {4.2}词法}{6}}
\@writefile{toc}{\contentsline {subsubsection}{程序的词法结构}{6}}
\@writefile{toc}{\contentsline {subsubsection}{字符集}{6}}
\@writefile{toc}{\contentsline {subsubsection}{注释与空白}{6}}
\@writefile{toc}{\contentsline {subsubsection}{常量}{7}}
\@writefile{toc}{\contentsline {subsubsection}{保留字}{7}}
\@writefile{toc}{\contentsline {subsubsection}{标识符}{7}}
\@writefile{toc}{\contentsline {subsubsection}{操作符}{7}}
\@writefile{toc}{\contentsline {subsection}{\numberline {4.3}语法}{7}}
\@writefile{toc}{\contentsline {subsubsection}{顶层语句}{8}}
\@writefile{toc}{\contentsline {subsubsection}{ADT定义}{8}}
\@writefile{toc}{\contentsline {subsubsection}{类型}{8}}
\@writefile{toc}{\contentsline {subsubsection}{函数定义与模式匹配}{9}}
\@writefile{toc}{\contentsline {subsubsection}{表达式}{9}}
\@writefile{toc}{\contentsline {subsubsection}{中缀表达式}{10}}
\@writefile{toc}{\contentsline {subsection}{\numberline {4.4}样式（Layout）\FN@sf@gobble@opt  {此处沿用[]中的称呼。}}{10}}
\@writefile{toc}{\contentsline {subsection}{\numberline {4.5}语义}{12}}
\@writefile{toc}{\contentsline {subsection}{\numberline {4.6}内置原语}{12}}
\@writefile{toc}{\contentsline {subsubsection}{内置类型}{12}}
\@writefile{toc}{\contentsline {subsubsection}{Prelude\FN@sf@gobble@opt  {由于Haskell/0不支持类型类（Haskell中使用类型类来实现这些操作符重载），\texttt  {Int}类型与\texttt  {Float}分别有一套不同的操作符；这一替代方案是我们从OCaml借鉴来的。}}{13}}
\@writefile{toc}{\contentsline {section}{\numberline {5}编译器前端}{15}}
\@writefile{toc}{\contentsline {subsection}{\numberline {5.1}词法分析}{15}}
\@writefile{toc}{\contentsline {subsection}{\numberline {5.2}语法分析}{15}}
\@writefile{toc}{\contentsline {section}{\numberline {6}编译器后端}{15}}
\@writefile{toc}{\contentsline {subsection}{\numberline {6.1}类型检测}{15}}
\citation{okmij_typeclass}
\bibstyle{splncs04}
\bibdata{ref}
\bibcite{Hudak07ahistory}{1}
\bibcite{okmij_typeclass}{2}
\bibcite{haskell2010}{3}
\bibcite{wirth76}{4}
\@writefile{toc}{\contentsline {subsection}{\numberline {6.2}Core Language}{16}}
\@writefile{toc}{\contentsline {subsection}{\numberline {6.3}从Haskell到Core Language的转换}{16}}
\@writefile{toc}{\contentsline {subsection}{\numberline {6.4}STG Language}{16}}
\@writefile{toc}{\contentsline {subsection}{\numberline {6.5}从Core Language到STG Language的转换}{16}}
\@writefile{toc}{\contentsline {subsection}{\numberline {6.6}从STG Language到ANSI C的转换}{16}}
\@writefile{toc}{\contentsline {section}{\numberline {7}其他可能的扩展}{16}}
\@writefile{toc}{\contentsline {section}{\numberline {8}结语}{16}}
